{
    "traceEvents": [
        {
            "ph": "M",
            "args": {
                "name": "Allocators"
            },
            "pid": 0,
            "name": "process_name"
        },
        {
            "ph": "M",
            "args": {
                "name": "/job:localhost/replica:0/task:0/cpu:0 Compute"
            },
            "pid": 1,
            "name": "process_name"
        },
        {
            "ph": "M",
            "args": {
                "name": "/job:localhost/replica:0/task:0/cpu:0 Tensors"
            },
            "pid": 2,
            "name": "process_name"
        },
        {
            "name": "NoOp",
            "args": {
                "name": "_SOURCE",
                "op": "NoOp"
            },
            "pid": 1,
            "ts": 1507547375313332,
            "cat": "Op",
            "tid": 0,
            "ph": "X",
            "dur": 15
        },
        {
            "name": "Const",
            "args": {
                "name": "gradients/Reshape_grad/Shape",
                "op": "Const"
            },
            "pid": 1,
            "ts": 1507547375313368,
            "cat": "Op",
            "tid": 0,
            "ph": "X",
            "dur": 10
        },
        {
            "name": "Const",
            "args": {
                "name": "gradients/Conv2D_grad/Shape",
                "op": "Const"
            },
            "pid": 1,
            "ts": 1507547375313380,
            "cat": "Op",
            "tid": 0,
            "ph": "X",
            "dur": 4
        },
        {
            "name": "Const",
            "args": {
                "name": "gradients/Conv2D_grad/Shape_1",
                "op": "Const"
            },
            "pid": 1,
            "ts": 1507547375313385,
            "cat": "Op",
            "tid": 0,
            "ph": "X",
            "dur": 3
        },
        {
            "name": "Const",
            "args": {
                "name": "GradientDescent/learning_rate",
                "op": "Const"
            },
            "pid": 1,
            "ts": 1507547375313390,
            "cat": "Op",
            "tid": 0,
            "ph": "X",
            "dur": 3
        },
        {
            "name": "Const",
            "args": {
                "name": "concat/_1__cf__1",
                "op": "Const"
            },
            "pid": 1,
            "ts": 1507547375313395,
            "cat": "Op",
            "tid": 0,
            "ph": "X",
            "dur": 4
        },
        {
            "name": "VariableV2",
            "args": {
                "name": "Variable",
                "op": "VariableV2"
            },
            "pid": 1,
            "ts": 1507547375313374,
            "cat": "Op",
            "tid": 1,
            "ph": "X",
            "dur": 28
        },
        {
            "name": "Const",
            "args": {
                "name": "gradients/SoftmaxCrossEntropyWithLogits_grad/ExpandDims/_2__cf__2",
                "op": "Const"
            },
            "pid": 1,
            "ts": 1507547375313400,
            "cat": "Op",
            "tid": 0,
            "ph": "X",
            "dur": 4
        },
        {
            "name": "Identity",
            "args": {
                "input0": "Variable",
                "name": "Variable/read",
                "op": "Identity"
            },
            "pid": 1,
            "ts": 1507547375313409,
            "cat": "Op",
            "tid": 0,
            "ph": "X",
            "dur": 6
        },
        {
            "name": "Variable",
            "pid": 1,
            "ts": 1507547375313402,
            "cat": "DataFlow",
            "tid": 1,
            "ph": "s",
            "id": 0
        },
        {
            "name": "Variable",
            "pid": 1,
            "ts": 1507547375313409,
            "cat": "DataFlow",
            "tid": 0,
            "ph": "t",
            "id": 0
        },
        {
            "name": "Reshape",
            "args": {
                "input0": "Variable/read",
                "input1": "concat_1",
                "name": "Reshape_1",
                "op": "Reshape"
            },
            "pid": 1,
            "ts": 1507547375313419,
            "cat": "Op",
            "tid": 0,
            "ph": "X",
            "dur": 7
        },
        {
            "name": "VariableV2",
            "args": {
                "name": "Variable_1",
                "op": "VariableV2"
            },
            "pid": 1,
            "ts": 1507547375313407,
            "cat": "Op",
            "tid": 1,
            "ph": "X",
            "dur": 27
        },
        {
            "name": "Identity",
            "args": {
                "input0": "Variable_1",
                "name": "Variable_1/read",
                "op": "Identity"
            },
            "pid": 1,
            "ts": 1507547375313439,
            "cat": "Op",
            "tid": 0,
            "ph": "X",
            "dur": 6
        },
        {
            "name": "Variable_1",
            "pid": 1,
            "ts": 1507547375313434,
            "cat": "DataFlow",
            "tid": 1,
            "ph": "s",
            "id": 1
        },
        {
            "name": "Variable_1",
            "pid": 1,
            "ts": 1507547375313439,
            "cat": "DataFlow",
            "tid": 0,
            "ph": "t",
            "id": 1
        },
        {
            "name": "VariableV2",
            "args": {
                "name": "Variable_2",
                "op": "VariableV2"
            },
            "pid": 1,
            "ts": 1507547375313415,
            "cat": "Op",
            "tid": 2,
            "ph": "X",
            "dur": 32
        },
        {
            "name": "Identity",
            "args": {
                "input0": "Variable_2",
                "name": "Variable_2/read",
                "op": "Identity"
            },
            "pid": 1,
            "ts": 1507547375313452,
            "cat": "Op",
            "tid": 0,
            "ph": "X",
            "dur": 6
        },
        {
            "name": "Variable_2",
            "pid": 1,
            "ts": 1507547375313447,
            "cat": "DataFlow",
            "tid": 2,
            "ph": "s",
            "id": 2
        },
        {
            "name": "Variable_2",
            "pid": 1,
            "ts": 1507547375313452,
            "cat": "DataFlow",
            "tid": 0,
            "ph": "t",
            "id": 2
        },
        {
            "name": "Conv2D",
            "args": {
                "input0": "Variable_1/read",
                "input1": "Variable_2/read",
                "name": "Conv2D",
                "op": "Conv2D"
            },
            "pid": 1,
            "ts": 1507547375313461,
            "cat": "Op",
            "tid": 0,
            "ph": "X",
            "dur": 1959
        },
        {
            "name": "Reshape",
            "args": {
                "input0": "Conv2D",
                "input1": "concat",
                "name": "Reshape",
                "op": "Reshape"
            },
            "pid": 1,
            "ts": 1507547375315429,
            "cat": "Op",
            "tid": 0,
            "ph": "X",
            "dur": 10
        },
        {
            "name": "SoftmaxCrossEntropyWithLogits",
            "args": {
                "input0": "Reshape",
                "input1": "Reshape_1",
                "name": "SoftmaxCrossEntropyWithLogits",
                "op": "SoftmaxCrossEntropyWithLogits"
            },
            "pid": 1,
            "ts": 1507547375315442,
            "cat": "Op",
            "tid": 0,
            "ph": "X",
            "dur": 2780
        },
        {
            "name": "Mul",
            "args": {
                "input0": "gradients/SoftmaxCrossEntropyWithLogits_grad/ExpandDims",
                "input1": "SoftmaxCrossEntropyWithLogits:1",
                "name": "gradients/SoftmaxCrossEntropyWithLogits_grad/mul",
                "op": "Mul"
            },
            "pid": 1,
            "ts": 1507547375318228,
            "cat": "Op",
            "tid": 0,
            "ph": "X",
            "dur": 644
        },
        {
            "name": "Reshape",
            "args": {
                "input0": "gradients/SoftmaxCrossEntropyWithLogits_grad/mul",
                "input1": "gradients/Reshape_grad/Shape",
                "name": "gradients/Reshape_grad/Reshape",
                "op": "Reshape"
            },
            "pid": 1,
            "ts": 1507547375318877,
            "cat": "Op",
            "tid": 0,
            "ph": "X",
            "dur": 7
        },
        {
            "name": "Conv2DBackpropInput",
            "args": {
                "input2": "gradients/Reshape_grad/Reshape",
                "input0": "gradients/Conv2D_grad/Shape",
                "input1": "Variable_2/read",
                "name": "gradients/Conv2D_grad/Conv2DBackpropInput",
                "op": "Conv2DBackpropInput"
            },
            "pid": 1,
            "ts": 1507547375318919,
            "cat": "Op",
            "tid": 0,
            "ph": "X",
            "dur": 1063
        },
        {
            "name": "Conv2DBackpropFilter",
            "args": {
                "input2": "gradients/Reshape_grad/Reshape",
                "input0": "Variable_1/read",
                "input1": "gradients/Conv2D_grad/Shape_1",
                "name": "gradients/Conv2D_grad/Conv2DBackpropFilter",
                "op": "Conv2DBackpropFilter"
            },
            "pid": 1,
            "ts": 1507547375318893,
            "cat": "Op",
            "tid": 1,
            "ph": "X",
            "dur": 1953
        },
        {
            "name": "Variable_1/read",
            "pid": 1,
            "ts": 1507547375313445,
            "cat": "DataFlow",
            "tid": 0,
            "ph": "s",
            "id": 3
        },
        {
            "name": "Variable_1/read",
            "pid": 1,
            "ts": 1507547375318893,
            "cat": "DataFlow",
            "tid": 1,
            "ph": "t",
            "id": 3
        },
        {
            "name": "gradients/Conv2D_grad/Shape_1",
            "pid": 1,
            "ts": 1507547375313388,
            "cat": "DataFlow",
            "tid": 0,
            "ph": "s",
            "id": 4
        },
        {
            "name": "gradients/Conv2D_grad/Shape_1",
            "pid": 1,
            "ts": 1507547375318893,
            "cat": "DataFlow",
            "tid": 1,
            "ph": "t",
            "id": 4
        },
        {
            "name": "gradients/Reshape_grad/Reshape",
            "pid": 1,
            "ts": 1507547375318884,
            "cat": "DataFlow",
            "tid": 0,
            "ph": "s",
            "id": 5
        },
        {
            "name": "gradients/Reshape_grad/Reshape",
            "pid": 1,
            "ts": 1507547375318893,
            "cat": "DataFlow",
            "tid": 1,
            "ph": "t",
            "id": 5
        },
        {
            "name": "NoOp",
            "args": {
                "input0": "^gradients/Conv2D_grad/Conv2DBackpropInput",
                "input1": "^gradients/Conv2D_grad/Conv2DBackpropFilter",
                "name": "gradients/Conv2D_grad/tuple/group_deps",
                "op": "NoOp"
            },
            "pid": 1,
            "ts": 1507547375320858,
            "cat": "Op",
            "tid": 0,
            "ph": "X",
            "dur": 4
        },
        {
            "name": "Identity",
            "args": {
                "input0": "gradients/Conv2D_grad/Conv2DBackpropInput",
                "input1": "^gradients/Conv2D_grad/tuple/group_deps",
                "name": "gradients/Conv2D_grad/tuple/control_dependency",
                "op": "Identity"
            },
            "pid": 1,
            "ts": 1507547375320865,
            "cat": "Op",
            "tid": 0,
            "ph": "X",
            "dur": 4
        },
        {
            "name": "Identity",
            "args": {
                "input0": "gradients/Conv2D_grad/Conv2DBackpropFilter",
                "input1": "^gradients/Conv2D_grad/tuple/group_deps",
                "name": "gradients/Conv2D_grad/tuple/control_dependency_1",
                "op": "Identity"
            },
            "pid": 1,
            "ts": 1507547375320878,
            "cat": "Op",
            "tid": 0,
            "ph": "X",
            "dur": 4
        },
        {
            "name": "gradients/Conv2D_grad/Conv2DBackpropFilter",
            "pid": 1,
            "ts": 1507547375320846,
            "cat": "DataFlow",
            "tid": 1,
            "ph": "s",
            "id": 6
        },
        {
            "name": "gradients/Conv2D_grad/Conv2DBackpropFilter",
            "pid": 1,
            "ts": 1507547375320878,
            "cat": "DataFlow",
            "tid": 0,
            "ph": "t",
            "id": 6
        },
        {
            "name": "ApplyGradientDescent",
            "args": {
                "input2": "gradients/Conv2D_grad/tuple/control_dependency_1",
                "input0": "Variable_2",
                "input1": "GradientDescent/learning_rate",
                "name": "GradientDescent/update_Variable_2/ApplyGradientDescent",
                "op": "ApplyGradientDescent"
            },
            "pid": 1,
            "ts": 1507547375320885,
            "cat": "Op",
            "tid": 0,
            "ph": "X",
            "dur": 11
        },
        {
            "name": "Variable_2",
            "pid": 1,
            "ts": 1507547375313447,
            "cat": "DataFlow",
            "tid": 2,
            "ph": "s",
            "id": 7
        },
        {
            "name": "Variable_2",
            "pid": 1,
            "ts": 1507547375320885,
            "cat": "DataFlow",
            "tid": 0,
            "ph": "t",
            "id": 7
        },
        {
            "name": "ApplyGradientDescent",
            "args": {
                "input2": "gradients/Conv2D_grad/tuple/control_dependency",
                "input0": "Variable_1",
                "input1": "GradientDescent/learning_rate",
                "name": "GradientDescent/update_Variable_1/ApplyGradientDescent",
                "op": "ApplyGradientDescent"
            },
            "pid": 1,
            "ts": 1507547375320900,
            "cat": "Op",
            "tid": 0,
            "ph": "X",
            "dur": 25
        },
        {
            "name": "Variable_1",
            "pid": 1,
            "ts": 1507547375313434,
            "cat": "DataFlow",
            "tid": 1,
            "ph": "s",
            "id": 8
        },
        {
            "name": "Variable_1",
            "pid": 1,
            "ts": 1507547375320900,
            "cat": "DataFlow",
            "tid": 0,
            "ph": "t",
            "id": 8
        },
        {
            "name": "NoOp",
            "args": {
                "input0": "^GradientDescent/update_Variable_1/ApplyGradientDescent",
                "input1": "^GradientDescent/update_Variable_2/ApplyGradientDescent",
                "name": "GradientDescent",
                "op": "NoOp"
            },
            "pid": 1,
            "ts": 1507547375320929,
            "cat": "Op",
            "tid": 0,
            "ph": "X",
            "dur": 5
        }
    ]
}