{
    "traceEvents": [
        {
            "ph": "M",
            "args": {
                "name": "Allocators"
            },
            "pid": 0,
            "name": "process_name"
        },
        {
            "ph": "M",
            "args": {
                "name": "/job:localhost/replica:0/task:0/cpu:0 Compute"
            },
            "pid": 1,
            "name": "process_name"
        },
        {
            "ph": "M",
            "args": {
                "name": "/job:localhost/replica:0/task:0/cpu:0 Tensors"
            },
            "pid": 2,
            "name": "process_name"
        },
        {
            "name": "NoOp",
            "args": {
                "name": "_SOURCE",
                "op": "NoOp"
            },
            "pid": 1,
            "ts": 1507547338832232,
            "cat": "Op",
            "tid": 0,
            "ph": "X",
            "dur": 14
        },
        {
            "name": "Const",
            "args": {
                "name": "gradients/Reshape_grad/Shape",
                "op": "Const"
            },
            "pid": 1,
            "ts": 1507547338832269,
            "cat": "Op",
            "tid": 0,
            "ph": "X",
            "dur": 10
        },
        {
            "name": "Const",
            "args": {
                "name": "gradients/Conv2D_grad/Shape",
                "op": "Const"
            },
            "pid": 1,
            "ts": 1507547338832282,
            "cat": "Op",
            "tid": 0,
            "ph": "X",
            "dur": 4
        },
        {
            "name": "Const",
            "args": {
                "name": "gradients/Conv2D_grad/Shape_1",
                "op": "Const"
            },
            "pid": 1,
            "ts": 1507547338832288,
            "cat": "Op",
            "tid": 0,
            "ph": "X",
            "dur": 3
        },
        {
            "name": "Const",
            "args": {
                "name": "GradientDescent/learning_rate",
                "op": "Const"
            },
            "pid": 1,
            "ts": 1507547338832292,
            "cat": "Op",
            "tid": 0,
            "ph": "X",
            "dur": 4
        },
        {
            "name": "Const",
            "args": {
                "name": "concat/_1__cf__1",
                "op": "Const"
            },
            "pid": 1,
            "ts": 1507547338832297,
            "cat": "Op",
            "tid": 0,
            "ph": "X",
            "dur": 4
        },
        {
            "name": "Const",
            "args": {
                "name": "gradients/SoftmaxCrossEntropyWithLogits_grad/ExpandDims/_2__cf__2",
                "op": "Const"
            },
            "pid": 1,
            "ts": 1507547338832303,
            "cat": "Op",
            "tid": 0,
            "ph": "X",
            "dur": 4
        },
        {
            "name": "VariableV2",
            "args": {
                "name": "Variable_2",
                "op": "VariableV2"
            },
            "pid": 1,
            "ts": 1507547338832310,
            "cat": "Op",
            "tid": 0,
            "ph": "X",
            "dur": 15
        },
        {
            "name": "Identity",
            "args": {
                "input0": "Variable_2",
                "name": "Variable_2/read",
                "op": "Identity"
            },
            "pid": 1,
            "ts": 1507547338832327,
            "cat": "Op",
            "tid": 0,
            "ph": "X",
            "dur": 5
        },
        {
            "name": "VariableV2",
            "args": {
                "name": "Variable",
                "op": "VariableV2"
            },
            "pid": 1,
            "ts": 1507547338832307,
            "cat": "Op",
            "tid": 1,
            "ph": "X",
            "dur": 32
        },
        {
            "name": "VariableV2",
            "args": {
                "name": "Variable_1",
                "op": "VariableV2"
            },
            "pid": 1,
            "ts": 1507547338832314,
            "cat": "Op",
            "tid": 2,
            "ph": "X",
            "dur": 30
        },
        {
            "name": "Identity",
            "args": {
                "input0": "Variable",
                "name": "Variable/read",
                "op": "Identity"
            },
            "pid": 1,
            "ts": 1507547338832344,
            "cat": "Op",
            "tid": 0,
            "ph": "X",
            "dur": 7
        },
        {
            "name": "Variable",
            "pid": 1,
            "ts": 1507547338832339,
            "cat": "DataFlow",
            "tid": 1,
            "ph": "s",
            "id": 0
        },
        {
            "name": "Variable",
            "pid": 1,
            "ts": 1507547338832344,
            "cat": "DataFlow",
            "tid": 0,
            "ph": "t",
            "id": 0
        },
        {
            "name": "Identity",
            "args": {
                "input0": "Variable_1",
                "name": "Variable_1/read",
                "op": "Identity"
            },
            "pid": 1,
            "ts": 1507547338832349,
            "cat": "Op",
            "tid": 1,
            "ph": "X",
            "dur": 7
        },
        {
            "name": "Variable_1",
            "pid": 1,
            "ts": 1507547338832344,
            "cat": "DataFlow",
            "tid": 2,
            "ph": "s",
            "id": 1
        },
        {
            "name": "Variable_1",
            "pid": 1,
            "ts": 1507547338832349,
            "cat": "DataFlow",
            "tid": 1,
            "ph": "t",
            "id": 1
        },
        {
            "name": "Reshape",
            "args": {
                "input0": "Variable/read",
                "input1": "concat_1",
                "name": "Reshape_1",
                "op": "Reshape"
            },
            "pid": 1,
            "ts": 1507547338832354,
            "cat": "Op",
            "tid": 0,
            "ph": "X",
            "dur": 12
        },
        {
            "name": "Conv2D",
            "args": {
                "input0": "Variable_1/read",
                "input1": "Variable_2/read",
                "name": "Conv2D",
                "op": "Conv2D"
            },
            "pid": 1,
            "ts": 1507547338832359,
            "cat": "Op",
            "tid": 1,
            "ph": "X",
            "dur": 1943
        },
        {
            "name": "Variable_2/read",
            "pid": 1,
            "ts": 1507547338832332,
            "cat": "DataFlow",
            "tid": 0,
            "ph": "s",
            "id": 2
        },
        {
            "name": "Variable_2/read",
            "pid": 1,
            "ts": 1507547338832359,
            "cat": "DataFlow",
            "tid": 1,
            "ph": "t",
            "id": 2
        },
        {
            "name": "Reshape",
            "args": {
                "input0": "Conv2D",
                "input1": "concat",
                "name": "Reshape",
                "op": "Reshape"
            },
            "pid": 1,
            "ts": 1507547338834311,
            "cat": "Op",
            "tid": 0,
            "ph": "X",
            "dur": 10
        },
        {
            "name": "Conv2D",
            "pid": 1,
            "ts": 1507547338834302,
            "cat": "DataFlow",
            "tid": 1,
            "ph": "s",
            "id": 3
        },
        {
            "name": "Conv2D",
            "pid": 1,
            "ts": 1507547338834311,
            "cat": "DataFlow",
            "tid": 0,
            "ph": "t",
            "id": 3
        },
        {
            "name": "SoftmaxCrossEntropyWithLogits",
            "args": {
                "input0": "Reshape",
                "input1": "Reshape_1",
                "name": "SoftmaxCrossEntropyWithLogits",
                "op": "SoftmaxCrossEntropyWithLogits"
            },
            "pid": 1,
            "ts": 1507547338834324,
            "cat": "Op",
            "tid": 0,
            "ph": "X",
            "dur": 2646
        },
        {
            "name": "Mul",
            "args": {
                "input0": "gradients/SoftmaxCrossEntropyWithLogits_grad/ExpandDims",
                "input1": "SoftmaxCrossEntropyWithLogits:1",
                "name": "gradients/SoftmaxCrossEntropyWithLogits_grad/mul",
                "op": "Mul"
            },
            "pid": 1,
            "ts": 1507547338836976,
            "cat": "Op",
            "tid": 0,
            "ph": "X",
            "dur": 634
        },
        {
            "name": "Reshape",
            "args": {
                "input0": "gradients/SoftmaxCrossEntropyWithLogits_grad/mul",
                "input1": "gradients/Reshape_grad/Shape",
                "name": "gradients/Reshape_grad/Reshape",
                "op": "Reshape"
            },
            "pid": 1,
            "ts": 1507547338837615,
            "cat": "Op",
            "tid": 0,
            "ph": "X",
            "dur": 6
        },
        {
            "name": "Conv2DBackpropInput",
            "args": {
                "input2": "gradients/Reshape_grad/Reshape",
                "input0": "gradients/Conv2D_grad/Shape",
                "input1": "Variable_2/read",
                "name": "gradients/Conv2D_grad/Conv2DBackpropInput",
                "op": "Conv2DBackpropInput"
            },
            "pid": 1,
            "ts": 1507547338837677,
            "cat": "Op",
            "tid": 0,
            "ph": "X",
            "dur": 1113
        },
        {
            "name": "Conv2DBackpropFilter",
            "args": {
                "input2": "gradients/Reshape_grad/Reshape",
                "input0": "Variable_1/read",
                "input1": "gradients/Conv2D_grad/Shape_1",
                "name": "gradients/Conv2D_grad/Conv2DBackpropFilter",
                "op": "Conv2DBackpropFilter"
            },
            "pid": 1,
            "ts": 1507547338837629,
            "cat": "Op",
            "tid": 1,
            "ph": "X",
            "dur": 1761
        },
        {
            "name": "gradients/Conv2D_grad/Shape_1",
            "pid": 1,
            "ts": 1507547338832291,
            "cat": "DataFlow",
            "tid": 0,
            "ph": "s",
            "id": 4
        },
        {
            "name": "gradients/Conv2D_grad/Shape_1",
            "pid": 1,
            "ts": 1507547338837629,
            "cat": "DataFlow",
            "tid": 1,
            "ph": "t",
            "id": 4
        },
        {
            "name": "gradients/Reshape_grad/Reshape",
            "pid": 1,
            "ts": 1507547338837621,
            "cat": "DataFlow",
            "tid": 0,
            "ph": "s",
            "id": 5
        },
        {
            "name": "gradients/Reshape_grad/Reshape",
            "pid": 1,
            "ts": 1507547338837629,
            "cat": "DataFlow",
            "tid": 1,
            "ph": "t",
            "id": 5
        },
        {
            "name": "NoOp",
            "args": {
                "input0": "^gradients/Conv2D_grad/Conv2DBackpropInput",
                "input1": "^gradients/Conv2D_grad/Conv2DBackpropFilter",
                "name": "gradients/Conv2D_grad/tuple/group_deps",
                "op": "NoOp"
            },
            "pid": 1,
            "ts": 1507547338839403,
            "cat": "Op",
            "tid": 0,
            "ph": "X",
            "dur": 3
        },
        {
            "name": "Identity",
            "args": {
                "input0": "gradients/Conv2D_grad/Conv2DBackpropInput",
                "input1": "^gradients/Conv2D_grad/tuple/group_deps",
                "name": "gradients/Conv2D_grad/tuple/control_dependency",
                "op": "Identity"
            },
            "pid": 1,
            "ts": 1507547338839409,
            "cat": "Op",
            "tid": 0,
            "ph": "X",
            "dur": 6
        },
        {
            "name": "Identity",
            "args": {
                "input0": "gradients/Conv2D_grad/Conv2DBackpropFilter",
                "input1": "^gradients/Conv2D_grad/tuple/group_deps",
                "name": "gradients/Conv2D_grad/tuple/control_dependency_1",
                "op": "Identity"
            },
            "pid": 1,
            "ts": 1507547338839423,
            "cat": "Op",
            "tid": 0,
            "ph": "X",
            "dur": 4
        },
        {
            "name": "gradients/Conv2D_grad/Conv2DBackpropFilter",
            "pid": 1,
            "ts": 1507547338839390,
            "cat": "DataFlow",
            "tid": 1,
            "ph": "s",
            "id": 6
        },
        {
            "name": "gradients/Conv2D_grad/Conv2DBackpropFilter",
            "pid": 1,
            "ts": 1507547338839423,
            "cat": "DataFlow",
            "tid": 0,
            "ph": "t",
            "id": 6
        },
        {
            "name": "ApplyGradientDescent",
            "args": {
                "input2": "gradients/Conv2D_grad/tuple/control_dependency_1",
                "input0": "Variable_2",
                "input1": "GradientDescent/learning_rate",
                "name": "GradientDescent/update_Variable_2/ApplyGradientDescent",
                "op": "ApplyGradientDescent"
            },
            "pid": 1,
            "ts": 1507547338839429,
            "cat": "Op",
            "tid": 0,
            "ph": "X",
            "dur": 11
        },
        {
            "name": "ApplyGradientDescent",
            "args": {
                "input2": "gradients/Conv2D_grad/tuple/control_dependency",
                "input0": "Variable_1",
                "input1": "GradientDescent/learning_rate",
                "name": "GradientDescent/update_Variable_1/ApplyGradientDescent",
                "op": "ApplyGradientDescent"
            },
            "pid": 1,
            "ts": 1507547338839444,
            "cat": "Op",
            "tid": 0,
            "ph": "X",
            "dur": 21
        },
        {
            "name": "Variable_1",
            "pid": 1,
            "ts": 1507547338832344,
            "cat": "DataFlow",
            "tid": 2,
            "ph": "s",
            "id": 7
        },
        {
            "name": "Variable_1",
            "pid": 1,
            "ts": 1507547338839444,
            "cat": "DataFlow",
            "tid": 0,
            "ph": "t",
            "id": 7
        },
        {
            "name": "NoOp",
            "args": {
                "input0": "^GradientDescent/update_Variable_1/ApplyGradientDescent",
                "input1": "^GradientDescent/update_Variable_2/ApplyGradientDescent",
                "name": "GradientDescent",
                "op": "NoOp"
            },
            "pid": 1,
            "ts": 1507547338839469,
            "cat": "Op",
            "tid": 0,
            "ph": "X",
            "dur": 5
        }
    ]
}