{
    "traceEvents": [
        {
            "ph": "M",
            "args": {
                "name": "Allocators"
            },
            "pid": 0,
            "name": "process_name"
        },
        {
            "ph": "M",
            "args": {
                "name": "/job:localhost/replica:0/task:0/cpu:0 Compute"
            },
            "pid": 1,
            "name": "process_name"
        },
        {
            "ph": "M",
            "args": {
                "name": "/job:localhost/replica:0/task:0/cpu:0 Tensors"
            },
            "pid": 2,
            "name": "process_name"
        },
        {
            "name": "NoOp",
            "args": {
                "name": "_SOURCE",
                "op": "NoOp"
            },
            "pid": 1,
            "ts": 1507547447995129,
            "cat": "Op",
            "tid": 0,
            "ph": "X",
            "dur": 14
        },
        {
            "name": "Const",
            "args": {
                "name": "gradients/Reshape_grad/Shape",
                "op": "Const"
            },
            "pid": 1,
            "ts": 1507547447995165,
            "cat": "Op",
            "tid": 0,
            "ph": "X",
            "dur": 11
        },
        {
            "name": "Const",
            "args": {
                "name": "gradients/Conv2D_grad/Shape",
                "op": "Const"
            },
            "pid": 1,
            "ts": 1507547447995179,
            "cat": "Op",
            "tid": 0,
            "ph": "X",
            "dur": 4
        },
        {
            "name": "Const",
            "args": {
                "name": "gradients/Conv2D_grad/Shape_1",
                "op": "Const"
            },
            "pid": 1,
            "ts": 1507547447995186,
            "cat": "Op",
            "tid": 0,
            "ph": "X",
            "dur": 3
        },
        {
            "name": "Const",
            "args": {
                "name": "GradientDescent/learning_rate",
                "op": "Const"
            },
            "pid": 1,
            "ts": 1507547447995191,
            "cat": "Op",
            "tid": 0,
            "ph": "X",
            "dur": 3
        },
        {
            "name": "Const",
            "args": {
                "name": "concat/_1__cf__1",
                "op": "Const"
            },
            "pid": 1,
            "ts": 1507547447995196,
            "cat": "Op",
            "tid": 0,
            "ph": "X",
            "dur": 4
        },
        {
            "name": "Const",
            "args": {
                "name": "gradients/SoftmaxCrossEntropyWithLogits_grad/ExpandDims/_2__cf__2",
                "op": "Const"
            },
            "pid": 1,
            "ts": 1507547447995202,
            "cat": "Op",
            "tid": 0,
            "ph": "X",
            "dur": 4
        },
        {
            "name": "VariableV2",
            "args": {
                "name": "Variable",
                "op": "VariableV2"
            },
            "pid": 1,
            "ts": 1507547447995204,
            "cat": "Op",
            "tid": 1,
            "ph": "X",
            "dur": 32
        },
        {
            "name": "VariableV2",
            "args": {
                "name": "Variable_1",
                "op": "VariableV2"
            },
            "pid": 1,
            "ts": 1507547447995209,
            "cat": "Op",
            "tid": 0,
            "ph": "X",
            "dur": 28
        },
        {
            "name": "VariableV2",
            "args": {
                "name": "Variable_2",
                "op": "VariableV2"
            },
            "pid": 1,
            "ts": 1507547447995212,
            "cat": "Op",
            "tid": 2,
            "ph": "X",
            "dur": 29
        },
        {
            "name": "Identity",
            "args": {
                "input0": "Variable",
                "name": "Variable/read",
                "op": "Identity"
            },
            "pid": 1,
            "ts": 1507547447995243,
            "cat": "Op",
            "tid": 0,
            "ph": "X",
            "dur": 6
        },
        {
            "name": "Variable",
            "pid": 1,
            "ts": 1507547447995236,
            "cat": "DataFlow",
            "tid": 1,
            "ph": "s",
            "id": 0
        },
        {
            "name": "Variable",
            "pid": 1,
            "ts": 1507547447995243,
            "cat": "DataFlow",
            "tid": 0,
            "ph": "t",
            "id": 0
        },
        {
            "name": "Identity",
            "args": {
                "input0": "Variable_1",
                "name": "Variable_1/read",
                "op": "Identity"
            },
            "pid": 1,
            "ts": 1507547447995245,
            "cat": "Op",
            "tid": 1,
            "ph": "X",
            "dur": 6
        },
        {
            "name": "Variable_1",
            "pid": 1,
            "ts": 1507547447995237,
            "cat": "DataFlow",
            "tid": 0,
            "ph": "s",
            "id": 1
        },
        {
            "name": "Variable_1",
            "pid": 1,
            "ts": 1507547447995245,
            "cat": "DataFlow",
            "tid": 1,
            "ph": "t",
            "id": 1
        },
        {
            "name": "Identity",
            "args": {
                "input0": "Variable_2",
                "name": "Variable_2/read",
                "op": "Identity"
            },
            "pid": 1,
            "ts": 1507547447995246,
            "cat": "Op",
            "tid": 2,
            "ph": "X",
            "dur": 7
        },
        {
            "name": "Reshape",
            "args": {
                "input0": "Variable/read",
                "input1": "concat_1",
                "name": "Reshape_1",
                "op": "Reshape"
            },
            "pid": 1,
            "ts": 1507547447995252,
            "cat": "Op",
            "tid": 0,
            "ph": "X",
            "dur": 8
        },
        {
            "name": "Conv2D",
            "args": {
                "input0": "Variable_1/read",
                "input1": "Variable_2/read",
                "name": "Conv2D",
                "op": "Conv2D"
            },
            "pid": 1,
            "ts": 1507547447995256,
            "cat": "Op",
            "tid": 1,
            "ph": "X",
            "dur": 1956
        },
        {
            "name": "Variable_2/read",
            "pid": 1,
            "ts": 1507547447995253,
            "cat": "DataFlow",
            "tid": 2,
            "ph": "s",
            "id": 2
        },
        {
            "name": "Variable_2/read",
            "pid": 1,
            "ts": 1507547447995256,
            "cat": "DataFlow",
            "tid": 1,
            "ph": "t",
            "id": 2
        },
        {
            "name": "Reshape",
            "args": {
                "input0": "Conv2D",
                "input1": "concat",
                "name": "Reshape",
                "op": "Reshape"
            },
            "pid": 1,
            "ts": 1507547447997220,
            "cat": "Op",
            "tid": 0,
            "ph": "X",
            "dur": 10
        },
        {
            "name": "Conv2D",
            "pid": 1,
            "ts": 1507547447997212,
            "cat": "DataFlow",
            "tid": 1,
            "ph": "s",
            "id": 3
        },
        {
            "name": "Conv2D",
            "pid": 1,
            "ts": 1507547447997220,
            "cat": "DataFlow",
            "tid": 0,
            "ph": "t",
            "id": 3
        },
        {
            "name": "SoftmaxCrossEntropyWithLogits",
            "args": {
                "input0": "Reshape",
                "input1": "Reshape_1",
                "name": "SoftmaxCrossEntropyWithLogits",
                "op": "SoftmaxCrossEntropyWithLogits"
            },
            "pid": 1,
            "ts": 1507547447997234,
            "cat": "Op",
            "tid": 0,
            "ph": "X",
            "dur": 2782
        },
        {
            "name": "Mul",
            "args": {
                "input0": "gradients/SoftmaxCrossEntropyWithLogits_grad/ExpandDims",
                "input1": "SoftmaxCrossEntropyWithLogits:1",
                "name": "gradients/SoftmaxCrossEntropyWithLogits_grad/mul",
                "op": "Mul"
            },
            "pid": 1,
            "ts": 1507547448000023,
            "cat": "Op",
            "tid": 0,
            "ph": "X",
            "dur": 626
        },
        {
            "name": "Reshape",
            "args": {
                "input0": "gradients/SoftmaxCrossEntropyWithLogits_grad/mul",
                "input1": "gradients/Reshape_grad/Shape",
                "name": "gradients/Reshape_grad/Reshape",
                "op": "Reshape"
            },
            "pid": 1,
            "ts": 1507547448000655,
            "cat": "Op",
            "tid": 0,
            "ph": "X",
            "dur": 6
        },
        {
            "name": "Conv2DBackpropInput",
            "args": {
                "input2": "gradients/Reshape_grad/Reshape",
                "input0": "gradients/Conv2D_grad/Shape",
                "input1": "Variable_2/read",
                "name": "gradients/Conv2D_grad/Conv2DBackpropInput",
                "op": "Conv2DBackpropInput"
            },
            "pid": 1,
            "ts": 1507547448000712,
            "cat": "Op",
            "tid": 0,
            "ph": "X",
            "dur": 1083
        },
        {
            "name": "Variable_2/read",
            "pid": 1,
            "ts": 1507547447995253,
            "cat": "DataFlow",
            "tid": 2,
            "ph": "s",
            "id": 4
        },
        {
            "name": "Variable_2/read",
            "pid": 1,
            "ts": 1507547448000712,
            "cat": "DataFlow",
            "tid": 0,
            "ph": "t",
            "id": 4
        },
        {
            "name": "Conv2DBackpropFilter",
            "args": {
                "input2": "gradients/Reshape_grad/Reshape",
                "input0": "Variable_1/read",
                "input1": "gradients/Conv2D_grad/Shape_1",
                "name": "gradients/Conv2D_grad/Conv2DBackpropFilter",
                "op": "Conv2DBackpropFilter"
            },
            "pid": 1,
            "ts": 1507547448000670,
            "cat": "Op",
            "tid": 1,
            "ph": "X",
            "dur": 1920
        },
        {
            "name": "gradients/Conv2D_grad/Shape_1",
            "pid": 1,
            "ts": 1507547447995189,
            "cat": "DataFlow",
            "tid": 0,
            "ph": "s",
            "id": 5
        },
        {
            "name": "gradients/Conv2D_grad/Shape_1",
            "pid": 1,
            "ts": 1507547448000670,
            "cat": "DataFlow",
            "tid": 1,
            "ph": "t",
            "id": 5
        },
        {
            "name": "gradients/Reshape_grad/Reshape",
            "pid": 1,
            "ts": 1507547448000661,
            "cat": "DataFlow",
            "tid": 0,
            "ph": "s",
            "id": 6
        },
        {
            "name": "gradients/Reshape_grad/Reshape",
            "pid": 1,
            "ts": 1507547448000670,
            "cat": "DataFlow",
            "tid": 1,
            "ph": "t",
            "id": 6
        },
        {
            "name": "NoOp",
            "args": {
                "input0": "^gradients/Conv2D_grad/Conv2DBackpropInput",
                "input1": "^gradients/Conv2D_grad/Conv2DBackpropFilter",
                "name": "gradients/Conv2D_grad/tuple/group_deps",
                "op": "NoOp"
            },
            "pid": 1,
            "ts": 1507547448002603,
            "cat": "Op",
            "tid": 0,
            "ph": "X",
            "dur": 3
        },
        {
            "name": "Identity",
            "args": {
                "input0": "gradients/Conv2D_grad/Conv2DBackpropInput",
                "input1": "^gradients/Conv2D_grad/tuple/group_deps",
                "name": "gradients/Conv2D_grad/tuple/control_dependency",
                "op": "Identity"
            },
            "pid": 1,
            "ts": 1507547448002609,
            "cat": "Op",
            "tid": 0,
            "ph": "X",
            "dur": 5
        },
        {
            "name": "Identity",
            "args": {
                "input0": "gradients/Conv2D_grad/Conv2DBackpropFilter",
                "input1": "^gradients/Conv2D_grad/tuple/group_deps",
                "name": "gradients/Conv2D_grad/tuple/control_dependency_1",
                "op": "Identity"
            },
            "pid": 1,
            "ts": 1507547448002623,
            "cat": "Op",
            "tid": 0,
            "ph": "X",
            "dur": 5
        },
        {
            "name": "gradients/Conv2D_grad/Conv2DBackpropFilter",
            "pid": 1,
            "ts": 1507547448002590,
            "cat": "DataFlow",
            "tid": 1,
            "ph": "s",
            "id": 7
        },
        {
            "name": "gradients/Conv2D_grad/Conv2DBackpropFilter",
            "pid": 1,
            "ts": 1507547448002623,
            "cat": "DataFlow",
            "tid": 0,
            "ph": "t",
            "id": 7
        },
        {
            "name": "ApplyGradientDescent",
            "args": {
                "input2": "gradients/Conv2D_grad/tuple/control_dependency_1",
                "input0": "Variable_2",
                "input1": "GradientDescent/learning_rate",
                "name": "GradientDescent/update_Variable_2/ApplyGradientDescent",
                "op": "ApplyGradientDescent"
            },
            "pid": 1,
            "ts": 1507547448002631,
            "cat": "Op",
            "tid": 0,
            "ph": "X",
            "dur": 12
        },
        {
            "name": "Variable_2",
            "pid": 1,
            "ts": 1507547447995241,
            "cat": "DataFlow",
            "tid": 2,
            "ph": "s",
            "id": 8
        },
        {
            "name": "Variable_2",
            "pid": 1,
            "ts": 1507547448002631,
            "cat": "DataFlow",
            "tid": 0,
            "ph": "t",
            "id": 8
        },
        {
            "name": "ApplyGradientDescent",
            "args": {
                "input2": "gradients/Conv2D_grad/tuple/control_dependency",
                "input0": "Variable_1",
                "input1": "GradientDescent/learning_rate",
                "name": "GradientDescent/update_Variable_1/ApplyGradientDescent",
                "op": "ApplyGradientDescent"
            },
            "pid": 1,
            "ts": 1507547448002647,
            "cat": "Op",
            "tid": 0,
            "ph": "X",
            "dur": 24
        },
        {
            "name": "NoOp",
            "args": {
                "input0": "^GradientDescent/update_Variable_1/ApplyGradientDescent",
                "input1": "^GradientDescent/update_Variable_2/ApplyGradientDescent",
                "name": "GradientDescent",
                "op": "NoOp"
            },
            "pid": 1,
            "ts": 1507547448002675,
            "cat": "Op",
            "tid": 0,
            "ph": "X",
            "dur": 6
        }
    ]
}