{
    "traceEvents": [
        {
            "ph": "M",
            "args": {
                "name": "Allocators"
            },
            "pid": 0,
            "name": "process_name"
        },
        {
            "ph": "M",
            "args": {
                "name": "/job:localhost/replica:0/task:0/cpu:0 Compute"
            },
            "pid": 1,
            "name": "process_name"
        },
        {
            "ph": "M",
            "args": {
                "name": "/job:localhost/replica:0/task:0/cpu:0 Tensors"
            },
            "pid": 2,
            "name": "process_name"
        },
        {
            "name": "NoOp",
            "args": {
                "name": "_SOURCE",
                "op": "NoOp"
            },
            "pid": 1,
            "ts": 1507547356700399,
            "cat": "Op",
            "tid": 0,
            "ph": "X",
            "dur": 14
        },
        {
            "name": "Const",
            "args": {
                "name": "gradients/Reshape_grad/Shape",
                "op": "Const"
            },
            "pid": 1,
            "ts": 1507547356700435,
            "cat": "Op",
            "tid": 0,
            "ph": "X",
            "dur": 10
        },
        {
            "name": "Const",
            "args": {
                "name": "gradients/Conv2D_grad/Shape",
                "op": "Const"
            },
            "pid": 1,
            "ts": 1507547356700447,
            "cat": "Op",
            "tid": 0,
            "ph": "X",
            "dur": 3
        },
        {
            "name": "Const",
            "args": {
                "name": "gradients/Conv2D_grad/Shape_1",
                "op": "Const"
            },
            "pid": 1,
            "ts": 1507547356700452,
            "cat": "Op",
            "tid": 0,
            "ph": "X",
            "dur": 3
        },
        {
            "name": "Const",
            "args": {
                "name": "GradientDescent/learning_rate",
                "op": "Const"
            },
            "pid": 1,
            "ts": 1507547356700456,
            "cat": "Op",
            "tid": 0,
            "ph": "X",
            "dur": 4
        },
        {
            "name": "Const",
            "args": {
                "name": "concat/_1__cf__1",
                "op": "Const"
            },
            "pid": 1,
            "ts": 1507547356700462,
            "cat": "Op",
            "tid": 0,
            "ph": "X",
            "dur": 3
        },
        {
            "name": "Const",
            "args": {
                "name": "gradients/SoftmaxCrossEntropyWithLogits_grad/ExpandDims/_2__cf__2",
                "op": "Const"
            },
            "pid": 1,
            "ts": 1507547356700467,
            "cat": "Op",
            "tid": 0,
            "ph": "X",
            "dur": 4
        },
        {
            "name": "VariableV2",
            "args": {
                "name": "Variable_2",
                "op": "VariableV2"
            },
            "pid": 1,
            "ts": 1507547356700473,
            "cat": "Op",
            "tid": 0,
            "ph": "X",
            "dur": 20
        },
        {
            "name": "Identity",
            "args": {
                "input0": "Variable_2",
                "name": "Variable_2/read",
                "op": "Identity"
            },
            "pid": 1,
            "ts": 1507547356700495,
            "cat": "Op",
            "tid": 0,
            "ph": "X",
            "dur": 5
        },
        {
            "name": "VariableV2",
            "args": {
                "name": "Variable_1",
                "op": "VariableV2"
            },
            "pid": 1,
            "ts": 1507547356700478,
            "cat": "Op",
            "tid": 1,
            "ph": "X",
            "dur": 29
        },
        {
            "name": "VariableV2",
            "args": {
                "name": "Variable",
                "op": "VariableV2"
            },
            "pid": 1,
            "ts": 1507547356700470,
            "cat": "Op",
            "tid": 2,
            "ph": "X",
            "dur": 40
        },
        {
            "name": "Identity",
            "args": {
                "input0": "Variable_1",
                "name": "Variable_1/read",
                "op": "Identity"
            },
            "pid": 1,
            "ts": 1507547356700513,
            "cat": "Op",
            "tid": 0,
            "ph": "X",
            "dur": 6
        },
        {
            "name": "Variable_1",
            "pid": 1,
            "ts": 1507547356700507,
            "cat": "DataFlow",
            "tid": 1,
            "ph": "s",
            "id": 0
        },
        {
            "name": "Variable_1",
            "pid": 1,
            "ts": 1507547356700513,
            "cat": "DataFlow",
            "tid": 0,
            "ph": "t",
            "id": 0
        },
        {
            "name": "Identity",
            "args": {
                "input0": "Variable",
                "name": "Variable/read",
                "op": "Identity"
            },
            "pid": 1,
            "ts": 1507547356700515,
            "cat": "Op",
            "tid": 1,
            "ph": "X",
            "dur": 5
        },
        {
            "name": "Variable",
            "pid": 1,
            "ts": 1507547356700510,
            "cat": "DataFlow",
            "tid": 2,
            "ph": "s",
            "id": 1
        },
        {
            "name": "Variable",
            "pid": 1,
            "ts": 1507547356700515,
            "cat": "DataFlow",
            "tid": 1,
            "ph": "t",
            "id": 1
        },
        {
            "name": "Reshape",
            "args": {
                "input0": "Variable/read",
                "input1": "concat_1",
                "name": "Reshape_1",
                "op": "Reshape"
            },
            "pid": 1,
            "ts": 1507547356700523,
            "cat": "Op",
            "tid": 0,
            "ph": "X",
            "dur": 7
        },
        {
            "name": "Variable/read",
            "pid": 1,
            "ts": 1507547356700520,
            "cat": "DataFlow",
            "tid": 1,
            "ph": "s",
            "id": 2
        },
        {
            "name": "Variable/read",
            "pid": 1,
            "ts": 1507547356700523,
            "cat": "DataFlow",
            "tid": 0,
            "ph": "t",
            "id": 2
        },
        {
            "name": "Conv2D",
            "args": {
                "input0": "Variable_1/read",
                "input1": "Variable_2/read",
                "name": "Conv2D",
                "op": "Conv2D"
            },
            "pid": 1,
            "ts": 1507547356700522,
            "cat": "Op",
            "tid": 1,
            "ph": "X",
            "dur": 701
        },
        {
            "name": "Variable_1/read",
            "pid": 1,
            "ts": 1507547356700519,
            "cat": "DataFlow",
            "tid": 0,
            "ph": "s",
            "id": 3
        },
        {
            "name": "Variable_1/read",
            "pid": 1,
            "ts": 1507547356700522,
            "cat": "DataFlow",
            "tid": 1,
            "ph": "t",
            "id": 3
        },
        {
            "name": "Variable_2/read",
            "pid": 1,
            "ts": 1507547356700500,
            "cat": "DataFlow",
            "tid": 0,
            "ph": "s",
            "id": 4
        },
        {
            "name": "Variable_2/read",
            "pid": 1,
            "ts": 1507547356700522,
            "cat": "DataFlow",
            "tid": 1,
            "ph": "t",
            "id": 4
        },
        {
            "name": "Reshape",
            "args": {
                "input0": "Conv2D",
                "input1": "concat",
                "name": "Reshape",
                "op": "Reshape"
            },
            "pid": 1,
            "ts": 1507547356701232,
            "cat": "Op",
            "tid": 0,
            "ph": "X",
            "dur": 10
        },
        {
            "name": "Conv2D",
            "pid": 1,
            "ts": 1507547356701223,
            "cat": "DataFlow",
            "tid": 1,
            "ph": "s",
            "id": 5
        },
        {
            "name": "Conv2D",
            "pid": 1,
            "ts": 1507547356701232,
            "cat": "DataFlow",
            "tid": 0,
            "ph": "t",
            "id": 5
        },
        {
            "name": "SoftmaxCrossEntropyWithLogits",
            "args": {
                "input0": "Reshape",
                "input1": "Reshape_1",
                "name": "SoftmaxCrossEntropyWithLogits",
                "op": "SoftmaxCrossEntropyWithLogits"
            },
            "pid": 1,
            "ts": 1507547356701246,
            "cat": "Op",
            "tid": 0,
            "ph": "X",
            "dur": 1092
        },
        {
            "name": "Mul",
            "args": {
                "input0": "gradients/SoftmaxCrossEntropyWithLogits_grad/ExpandDims",
                "input1": "SoftmaxCrossEntropyWithLogits:1",
                "name": "gradients/SoftmaxCrossEntropyWithLogits_grad/mul",
                "op": "Mul"
            },
            "pid": 1,
            "ts": 1507547356702342,
            "cat": "Op",
            "tid": 0,
            "ph": "X",
            "dur": 876
        },
        {
            "name": "Reshape",
            "args": {
                "input0": "gradients/SoftmaxCrossEntropyWithLogits_grad/mul",
                "input1": "gradients/Reshape_grad/Shape",
                "name": "gradients/Reshape_grad/Reshape",
                "op": "Reshape"
            },
            "pid": 1,
            "ts": 1507547356703222,
            "cat": "Op",
            "tid": 0,
            "ph": "X",
            "dur": 6
        },
        {
            "name": "Conv2DBackpropInput",
            "args": {
                "input2": "gradients/Reshape_grad/Reshape",
                "input0": "gradients/Conv2D_grad/Shape",
                "input1": "Variable_2/read",
                "name": "gradients/Conv2D_grad/Conv2DBackpropInput",
                "op": "Conv2DBackpropInput"
            },
            "pid": 1,
            "ts": 1507547356703282,
            "cat": "Op",
            "tid": 0,
            "ph": "X",
            "dur": 321
        },
        {
            "name": "Conv2DBackpropFilter",
            "args": {
                "input2": "gradients/Reshape_grad/Reshape",
                "input0": "Variable_1/read",
                "input1": "gradients/Conv2D_grad/Shape_1",
                "name": "gradients/Conv2D_grad/Conv2DBackpropFilter",
                "op": "Conv2DBackpropFilter"
            },
            "pid": 1,
            "ts": 1507547356703241,
            "cat": "Op",
            "tid": 1,
            "ph": "X",
            "dur": 480
        },
        {
            "name": "Variable_1/read",
            "pid": 1,
            "ts": 1507547356700519,
            "cat": "DataFlow",
            "tid": 0,
            "ph": "s",
            "id": 6
        },
        {
            "name": "Variable_1/read",
            "pid": 1,
            "ts": 1507547356703241,
            "cat": "DataFlow",
            "tid": 1,
            "ph": "t",
            "id": 6
        },
        {
            "name": "gradients/Conv2D_grad/Shape_1",
            "pid": 1,
            "ts": 1507547356700455,
            "cat": "DataFlow",
            "tid": 0,
            "ph": "s",
            "id": 7
        },
        {
            "name": "gradients/Conv2D_grad/Shape_1",
            "pid": 1,
            "ts": 1507547356703241,
            "cat": "DataFlow",
            "tid": 1,
            "ph": "t",
            "id": 7
        },
        {
            "name": "gradients/Reshape_grad/Reshape",
            "pid": 1,
            "ts": 1507547356703228,
            "cat": "DataFlow",
            "tid": 0,
            "ph": "s",
            "id": 8
        },
        {
            "name": "gradients/Reshape_grad/Reshape",
            "pid": 1,
            "ts": 1507547356703241,
            "cat": "DataFlow",
            "tid": 1,
            "ph": "t",
            "id": 8
        },
        {
            "name": "NoOp",
            "args": {
                "input0": "^gradients/Conv2D_grad/Conv2DBackpropInput",
                "input1": "^gradients/Conv2D_grad/Conv2DBackpropFilter",
                "name": "gradients/Conv2D_grad/tuple/group_deps",
                "op": "NoOp"
            },
            "pid": 1,
            "ts": 1507547356703734,
            "cat": "Op",
            "tid": 0,
            "ph": "X",
            "dur": 3
        },
        {
            "name": "Identity",
            "args": {
                "input0": "gradients/Conv2D_grad/Conv2DBackpropInput",
                "input1": "^gradients/Conv2D_grad/tuple/group_deps",
                "name": "gradients/Conv2D_grad/tuple/control_dependency",
                "op": "Identity"
            },
            "pid": 1,
            "ts": 1507547356703740,
            "cat": "Op",
            "tid": 0,
            "ph": "X",
            "dur": 5
        },
        {
            "name": "Identity",
            "args": {
                "input0": "gradients/Conv2D_grad/Conv2DBackpropFilter",
                "input1": "^gradients/Conv2D_grad/tuple/group_deps",
                "name": "gradients/Conv2D_grad/tuple/control_dependency_1",
                "op": "Identity"
            },
            "pid": 1,
            "ts": 1507547356703755,
            "cat": "Op",
            "tid": 0,
            "ph": "X",
            "dur": 4
        },
        {
            "name": "gradients/Conv2D_grad/Conv2DBackpropFilter",
            "pid": 1,
            "ts": 1507547356703721,
            "cat": "DataFlow",
            "tid": 1,
            "ph": "s",
            "id": 9
        },
        {
            "name": "gradients/Conv2D_grad/Conv2DBackpropFilter",
            "pid": 1,
            "ts": 1507547356703755,
            "cat": "DataFlow",
            "tid": 0,
            "ph": "t",
            "id": 9
        },
        {
            "name": "ApplyGradientDescent",
            "args": {
                "input2": "gradients/Conv2D_grad/tuple/control_dependency_1",
                "input0": "Variable_2",
                "input1": "GradientDescent/learning_rate",
                "name": "GradientDescent/update_Variable_2/ApplyGradientDescent",
                "op": "ApplyGradientDescent"
            },
            "pid": 1,
            "ts": 1507547356703762,
            "cat": "Op",
            "tid": 0,
            "ph": "X",
            "dur": 11
        },
        {
            "name": "ApplyGradientDescent",
            "args": {
                "input2": "gradients/Conv2D_grad/tuple/control_dependency",
                "input0": "Variable_1",
                "input1": "GradientDescent/learning_rate",
                "name": "GradientDescent/update_Variable_1/ApplyGradientDescent",
                "op": "ApplyGradientDescent"
            },
            "pid": 1,
            "ts": 1507547356703763,
            "cat": "Op",
            "tid": 1,
            "ph": "X",
            "dur": 26
        },
        {
            "name": "GradientDescent/learning_rate",
            "pid": 1,
            "ts": 1507547356700460,
            "cat": "DataFlow",
            "tid": 0,
            "ph": "s",
            "id": 10
        },
        {
            "name": "GradientDescent/learning_rate",
            "pid": 1,
            "ts": 1507547356703763,
            "cat": "DataFlow",
            "tid": 1,
            "ph": "t",
            "id": 10
        },
        {
            "name": "gradients/Conv2D_grad/tuple/control_dependency",
            "pid": 1,
            "ts": 1507547356703745,
            "cat": "DataFlow",
            "tid": 0,
            "ph": "s",
            "id": 11
        },
        {
            "name": "gradients/Conv2D_grad/tuple/control_dependency",
            "pid": 1,
            "ts": 1507547356703763,
            "cat": "DataFlow",
            "tid": 1,
            "ph": "t",
            "id": 11
        },
        {
            "name": "NoOp",
            "args": {
                "input0": "^GradientDescent/update_Variable_1/ApplyGradientDescent",
                "input1": "^GradientDescent/update_Variable_2/ApplyGradientDescent",
                "name": "GradientDescent",
                "op": "NoOp"
            },
            "pid": 1,
            "ts": 1507547356703794,
            "cat": "Op",
            "tid": 0,
            "ph": "X",
            "dur": 6
        }
    ]
}