_MklConv2DBackpropInput	143.61
_MklConv2DBackpropFilter	109.876
ApplyAdam	71.631
BiasAddGrad	22.627
_MklFusedBatchNorm	14.332
_MklConv2D	13.678
_MklFusedBatchNormGrad	9.888
_MklMul	8.265
_MklToTf	6.308
MatMul	5.627
_MklInputConversion	5.218
_MklConv2DWithBias	4.71
Const	4.135
_MklConcatV2	3.88
GreaterEqual	3.327
Select	3.299
VariableV2	2.89
HistogramSummary	2.832
_MklRelu	2.727
_MklReluGrad	1.898
BiasAdd	1.756
Add	1.716
_MklReshape	1.579
Identity	1.525
Slice	1.376
_MklMaximum	1.287
Sum	1.284
_MklAddN	1.082
_MklSub	0.954
ImageSummary	0.85
Mul	0.816
AssignSub	0.465
Sigmoid	0.434
SigmoidGrad	0.142
MergeSummary	0.135
ScalarSummary	0.096
NoOp	0.091
Mean	0.08
Snapshot	0.066
Neg	0.044
_Arg	0.043
Assign	0.042
Sub	0.041
Log1p	0.036
AddN	0.029
_MklIdentity	0.019
Exp	0.019
Reciprocal	0.018
_Retval	0.015
Overall, 456.798ms spent working out of a 469.82ms runtime.
